<?xml version="1.0" standalone="no"?>
<!DOCTYPE svg PUBLIC "-//W3C//DTD SVG 1.1//EN" "http://www.w3.org/Graphics/SVG/1.1/DTD/svg11.dtd">
<svg xmlns="http://www.w3.org/2000/svg"><defs><font id="flaticon" horiz-adv-x="512"><font-face units-per-em="512" ascent="448" descent="-64" x-height="240" cap-height="480"/><missing-glyph horiz-adv-x="512"/><glyph unicode="&#xE000;" glyph-name="behance13" horiz-adv-x="512" d="M215.45412067993 234.69072746314c0 19.592362845404 -13.333118504793 19.592362845404 -13.333118504793 19.592362845404h-7.0635623942641h-47.784741802949H147.25207443809v-42.051397728188h51.466043663901C207.61717554177 212.23169258036 215.45412067993 215.06742930798 215.45412067993 234.69072746314zM342.56730846693 212.23169258036c-29.089502940466 0 -33.152340288407 -29.017320551035 -33.152340288407 -29.017320551035h61.891243051639C371.30621123016 183.19374848949 371.68774671715 212.23169258036 342.56730846693 212.23169258036zM202.12100217514 183.19374848949h-54.837992427294v-50.383307822444h48.578748086683c0.8249415934907 0 2.0417304438895 -0.041247079674535 3.4956900024168 0c7.8060098284057 0.19592362845404 22.64464674132 2.4232659308789 22.64464674132 24.480141786836 C222.00209457826 183.44123096753 202.12100217514 183.19374848949 202.12100217514 183.19374848949zM256 448C114.84218158382 448 0 333.15781841618 0 192c0 -141.14750664626 114.84218158382 -256 256 -256c141.14750664626 0 256 114.85249335374 256 256 C512 333.15781841618 397.1681301861 448 256 448zM301.29960525256 276.6699428019h77.740433416579v-23.211794086844h-77.740433416579V276.6699428019zM261.99113832273 154.94981068235c0 -57.50874083622 -59.870136147587 -55.631998711029 -59.870136147587 -55.631998711029 h-54.837992427294h-1.6086361073069h-41.597679851768V287.76540723435h41.597679851768h1.6086361073069h54.837992427294c29.81132683477 0 53.332474019173 -16.467896560058 53.332474019173 -50.18738419399c0 -33.709175864014 -28.749214533151 -35.854024007089 -28.749214533151 -35.854024007089 C264.60001611214 201.73431080319 261.99113832273 154.94981068235 261.99113832273 154.94981068235zM407.43865302505 158.04334165794h-97.66277289938c0 -35.01877064368 33.172963828245 -32.812051881092 33.172963828245 -32.812051881092 c31.306533472972 0 30.213485861597 20.272939660034 30.213485861597 20.272939660034h33.193587368082c0 -53.806815435431 -64.489809071135 -50.104890034641 -64.489809071135 -50.104890034641c-77.369209699509 0 -72.398936598727 72.027712881656 -72.398936598727 72.027712881656 s-0.072182389430436 72.409248368646 72.398936598727 72.409248368646C418.13195843068 239.83630065254 407.41802948522 158.04334165794 407.43865302505 158.04334165794z"/><glyph unicode="&#xE001;" glyph-name="cross31" horiz-adv-x="512" d="M511.98859749145 432.0433295325L496.05701254276 448L256 207.95895096921L15.958950969213 448L0.011402508551881 432.0433295325L240.05245153934 192.00456100342L0.011402508551881 -48.036488027366L15.958950969213 -64L256 176.07297605473L496.05701254276 -64L511.98859749145 -48.036488027366L271.94754846066 192.00456100342Z"/><glyph unicode="&#xE002;" glyph-name="email131" horiz-adv-x="512" d="M256 -64c-23.552 0 -46.250666666667 3.072 -68.096 9.216c-21.845333333333 6.1465098039216 -42.24 14.762666666667 -61.184 25.856 s-36.181333333333 24.405333333333 -51.712 39.936c-15.530666666667 15.528993464052 -28.842666666667 32.768 -39.936 51.712c-11.093333333333 18.945673202614 -19.712 39.338666666667 -25.856 61.184836601307 C3.072 145.74933333333 0 168.448 0 192s3.072 46.250666666667 9.216 68.096s14.762666666667 42.24 25.856 61.184s24.405333333333 36.181333333333 39.936 51.712 s32.768 28.842666666667 51.712 39.936s39.338666666667 19.712 61.184 25.856S232.448 448 256 448c35.157333333333 0 68.352 -6.7413333333333 99.584 -20.224 s58.368 -31.744 81.408 -54.784s41.301333333333 -50.176 54.784 -81.408S512 227.15733333333 512 192c0 -23.552 -3.072 -46.250666666667 -9.216 -68.096 c-6.1465098039216 -21.842823529412 -14.762666666667 -42.237490196078 -25.856 -61.184c-11.093333333333 -18.944 -24.405333333333 -36.181333333333 -39.936 -51.712 c-15.528993464052 -15.530666666667 -32.768 -28.845176470588 -51.712 -39.936c-18.945673202614 -11.093333333333 -39.338666666667 -19.712 -61.185673202614 -25.856C302.25066666667 -60.928 279.552 -64 256 -64zM379.392 297.472H136.704c-2.3893333333333 0 -4.4373333333333 -0.768 -6.144 -2.304s-2.56 -3.6693333333333 -2.56 -6.4v-27.136c0 -1.3653333333333 0.512 -2.048 1.536 -2.048 l127.488 -72.704l1.0265098039216 -0.512c0.6801568627451 0 1.1946666666667 0.17066666666667 1.536 0.512l123.392 72.704c0.6801568627451 0.34133333333333 1.1946666666667 0.512 1.536 0.512 c0.33882352941176 0 0.85333333333333 0.17066666666667 1.536 0.512c1.3653333333333 0 2.048 0.68266666666667 2.048 2.048v26.112c0 2.7306666666667 -0.85416993464052 4.864 -2.5625098039216 6.4 S381.78133333333 297.472 379.392 297.472zM205.312 188.416c0.34133333333333 0.34133333333333 0.512 0.85416993464052 0.512 1.536c0 1.0265098039216 -0.34133333333333 1.536 -1.024 1.536 l-73.216 41.984836601307c-1.024 0.34133333333333 -1.8773333333333 0.34133333333333 -2.56 0c-0.68266666666667 0 -1.024 -0.512 -1.024 -1.536v-110.08c0 -1.0265098039216 0.512 -1.7066666666667 1.536 -2.048h1.024 c0.68266666666667 0 1.024 0.17066666666667 1.024 0.512L205.312 188.416zM294.4 180.224c-0.34133333333333 1.0265098039216 -1.1971764705882 1.1946666666667 -2.5625098039216 0.512l-28.16 -16.384 c-3.4133333333333 -2.048 -6.9948235294118 -2.048 -10.752 0l-24.576 13.821490196078c-1.024 0.68266666666667 -1.8773333333333 0.68266666666667 -2.56 0l-93.696 -87.04 c-0.34133333333333 -0.33882352941176 -0.512 -1.024 -0.512 -2.0454901960784c0 -0.34133333333333 0.34133333333333 -0.85416993464052 1.024 -1.536c2.048 -0.68266666666667 3.4133333333333 -1.0265098039216 4.096 -1.0265098039216H376.83032679739 c0.68266666666667 0 1.3678431372549 0.34133333333333 2.048 1.0265098039216c0 1.3653333333333 -0.17066666666667 2.2161568627451 -0.512 2.56L294.4 180.224zM386.56 235.52h-2.0454901960784l-69.632 -41.472 c-0.6801568627451 0 -1.024 -0.512 -1.024 -1.536c-0.34133333333333 -0.34133333333333 -0.17066666666667 -0.85333333333333 0.50949019607843 -1.5334901960784L384 115.712c0.68266666666667 -0.68266666666667 1.1946666666667 -1.0265098039216 1.536 -1.0265098039216h1.024 c1.0265098039216 1.0265098039216 1.5385098039216 1.7066666666667 1.5385098039216 2.048V233.47116339869C388.096 234.15466666667 387.584 234.83733333333 386.56 235.52z"/><glyph unicode="&#xE003;" glyph-name="label44" horiz-adv-x="512" d="M448.37399067685 448c-29.238906741085 0 -54.683298563953 -20.266136449922 -61.699193324279 -48.09525114191H242.94714923697c-10.570935407232 0 -20.510620643227 -4.1171538946272 -27.986426242598 -11.591957509599L9.2302802816516 182.58134665138 c-12.306372385936 -12.306372385936 -12.306372385936 -32.330028611351 0 -44.636400997288l192.71466537244 -192.71466537244c6.1531861929681 -6.1531861929681 14.236194338005 -9.2292782972528 22.318200498644 -9.2292782972528s16.165014305676 3.0760921042847 22.318200498644 9.2292782972528 L452.31279134849 150.96172497877c7.4748036149718 7.4758055993706 11.591957509599 17.414488850967 11.591957509599 27.986426242598V309.34539889547c6.1812417561342 3.1782945129612 12.026818738674 6.8716090069004 17.363387646628 11.124030795364 c20.104816961717 16.018724583452 30.731863495282 38.117490498761 30.731863495282 63.904560986015C512 419.45747241607 483.45747241607 448 448.37399067685 448zM448.87498287624 178.94714923697c0 -6.5569859056804 -2.5530562481164 -12.721193927035 -7.1902400457155 -17.358377724634 L235.95329813341 -44.142673184784c-6.4467676218135 -6.4467676218135 -16.934538323946 -6.4467676218135 -23.38130594576 0L19.857326815216 148.57199218765c-6.4457656374147 6.4467676218135 -6.4457656374147 16.934538323946 0 23.38130594576L225.58877151233 377.68474283053 C230.22595530993 382.32192662813 236.39016333129 384.87498287624 242.94714923697 384.87498287624h189.39509105925c9.1160540601895 0 16.532742580032 -7.416688519842 16.532742580032 -16.532742580032v-49.371779265968c-13.109963873766 -5.3986919406794 -27.549561044725 -8.5078495301241 -41.425040999166 -9.6230581659771 C404.92393920773 328.75283471563 388.29801207861 343.79362252586 368.21523877367 343.79362252586c-21.823220205642 0 -39.578383752197 -17.755163546555 -39.578383752197 -39.578383752197s17.755163546555 -39.578383752197 39.578383752197 -39.578383752197 c18.352346248234 0 33.822985365548 12.556868485634 38.281815940163 29.529482216734c14.060847068217 0.9328474752733 28.673787540167 3.7293859322956 42.377928162415 8.6651610807341V178.94714923697zM366.53591292129 296.88973083411 c7.2724027664163 -1.6663000551874 15.387474412215 -2.67429636037 23.953439037469 -2.9758936644057c-3.9017272488874 -8.40364315265 -12.416590669803 -14.248218150791 -22.275115169496 -14.248218150791c-13.535807243251 0 -24.54861777035 11.012810527099 -24.54861777035 24.54861777035 s11.012810527099 24.54861777035 24.54861777035 24.54861777035c11.927622283194 0 21.890353160361 -8.5519368436709 24.091712884502 -19.844301018032c-8.0970359266203 0.19538695776401 -15.719131248214 1.0871530726869 -22.41238703213 2.6211911872341 c-4.0440090335156 0.92883953767814 -8.0769962386445 -1.6001690848673 -9.0038318075251 -5.6461820871805C359.96289526523 301.84855162372 362.49090190338 297.81756838739 366.53591292129 296.88973083411zM471.90158634483 332.22370867304 c-2.5280066381466 -2.0139886415675 -5.205308951713 -3.8826895453104 -7.9968374867413 -5.6191285084131V368.34224029621c0 17.40346702258 -14.159041539299 31.562508561878 -31.562508561878 31.562508561878h-30.023460525337c6.5549819368828 19.345312787434 25.022556390977 33.065485160063 46.055210905974 33.065485160063 c26.796068776835 0 48.596243341305 -21.800174564469 48.596243341305 -48.596243341305C496.97023401815 363.02370710744 488.53552934914 345.47795830023 471.90158634483 332.22370867304z"/><glyph unicode="&#xE004;" glyph-name="linkedin1" horiz-adv-x="512" d="M256 448C114.62399052616 448 0 333.37600947384 0 192s114.62399052616 -256 256 -256 s256 114.62399052616 256 256C512 333.40758894061 397.37600947384 448 256 448zM192 68.000065790556h-64V292.000592115h64V68.000065790556zM161.98371683745 305.72818631885c-16.576062106285 0 -29.983651046892 13.440221056267 -29.983651046892 30.016283162552s13.440221056267 30.016283162552 29.983651046892 30.016283162552c16.576062106285 -0.031579466767546 30.016283162552 -13.471800523035 30.016283162552 -30.016283162552 C192 319.16840737512 178.55977894373 305.72818631885 161.98371683745 305.72818631885zM415.99947367555 68.000065790556h-64V206.4960278952c0 16.224477376273 -4.6400763170447 27.583611572559 -24.576193687396 27.583611572559 c-33.056333163374 0 -39.423806312604 -27.583611572559 -39.423806312604 -27.583611572559v-138.49596210464h-64V292.000592115h64v-21.407720521719c9.1517294692347 7.0074836757184 31.999473675554 21.376141054952 64 21.376141054952 c20.736130528463 0 64 -12.415993684107 64 -87.423543150381V68.000065790556z"/><glyph unicode="&#xE005;" glyph-name="plus79" horiz-adv-x="512" d="M512 207.98494117647L271.99247058824 207.98494117647L271.99247058824 447.75236601307L240.0234248366 447.75236601307L240.0234248366 207.98494117647L0 207.98494117647L0 176.01505882353L240.0234248366 176.01505882353L240.0234248366 -63.752366013072L271.99247058824 -63.752366013072L271.99247058824 176.01505882353L512 176.01505882353Z"/><glyph unicode="&#xE006;" glyph-name="viadeo1" horiz-adv-x="512" d="M256 448C114.61467007673 448 0 333.38532992327 0 192S114.61467007673 -64 256 -64S512 50.614670076726 512 192S397.38532992327 448 256 448zM355.18919693095 133.22606649616c-1.4823120204604 -26.047836317136 -9.9309667519182 -49.607693094629 -25.51357544757 -70.548624040921c-7.8463017902813 -10.554271099744 -16.829217391304 -19.977166240409 -27.420153452685 -27.823468030691c-13.592225063939 -10.056675191816 -28.698189258312 -16.656368286445 -45.223611253197 -20.123826086957 c-12.230383631714 -2.5717851662404 -24.586475703325 -3.2736572890026 -37.021135549872 -2.6608286445013c-13.414138107417 0.65473145780051 -26.487815856777 3.1584245524297 -39.06389769821 7.9667723785166c-13.497943734015 5.159283887468 -25.607856777494 12.617984654731 -36.245933503836 22.39705370844 c-14.372664961637 13.209861892583 -25.707375959079 28.645810741688 -33.485585677749 46.606404092072c-4.808347826087 11.114721227621 -7.8463017902813 22.700849104859 -9.3705166240409 34.721718670077c-1.0789974424552 8.5219846547315 -1.3670792838875 17.064920716113 -0.91138618925831 25.618332480818 c1.5923069053708 29.730046035806 11.89516112532 56.024061381074 31.228071611253 78.735386189258c8.710547314578 10.234762148338 18.578659846547 19.160061381074 29.997176470588 26.304491048593c11.994680306905 7.5058414322251 24.947887468031 12.628460358056 38.822956521739 15.383570332481 c11.580890025575 2.2994168797954 23.261299232737 3.0955703324808 35.067416879795 2.4251253196931c11.030915601023 -0.62854219948849 21.8313657289 -2.4722659846547 32.35420971867 -5.8506803069054c1.2204194373402 -0.39807672634271 2.5508337595908 -0.61282864450128 3.7712531969309 -1.5713554987212 c-2.2260869565217 -4.7664450127877 -4.3736061381074 -9.5538414322251 -5.9868644501279 -14.561227621483c-1.5975447570332 -5.0073861892583 -2.6608286445013 -10.135242966752 -3.3365115089514 -15.545943734015c-0.98471611253197 0.30379539641944 -1.6970639386189 0.47664450127877 -2.3727468030691 0.73329923273657 c-7.7572583120205 3.0170025575448 -15.828787723785 4.808347826087 -24.115069053708 5.4578414322251c-6.4635089514067 0.5080716112532 -12.958445012788 0.47140664961637 -19.432429667519 -0.28808184143223c-7.3172787723785 -0.86424552429668 -14.425043478261 -2.5089309462916 -21.318056265985 -5.1121432225064 c-10.679979539642 -4.0383836317136 -20.160491048593 -10.035723785166 -28.640572890026 -17.641084398977c-10.994250639386 -9.8576368286445 -19.793841432225 -21.339007672634 -25.81737084399 -34.873616368286c-4.0383836317136 -9.0824347826087 -6.5368388746803 -18.589135549872 -7.725831202046 -28.462485933504 c-0.97424040920716 -8.0610537084399 -1.1470895140665 -16.132583120205 -0.34046035805627 -24.204112531969c1.3723171355499 -13.728409207161 5.3216572890026 -26.686854219949 11.905636828645 -38.822956521739c6.1806649616368 -11.376613810742 14.095058823529 -21.30758056266 24.31410741688 -29.331969309463 c11.816593350384 -9.2762352941176 25.09978516624 -15.357381074169 39.860051150895 -18.238199488491c1.283273657289 -0.24617902813299 2.3727468030691 -0.10999488491049 3.5303120204604 0.36664961636829c10.810925831202 4.4836010230179 20.354291560102 10.894731457801 28.750567774936 19.029115089514 c9.1348132992327 8.8414936061381 16.384 19.097207161125 22.428480818414 30.232879795396c6.7882557544757 12.539416879795 11.821831202046 25.780705882353 15.823549872123 39.430547314578c3.2527058823529 11.109483375959 5.7563989769821 22.386578005115 7.7048797953964 33.789381074169 c1.5504040920716 9.0771969309463 2.7236828644501 18.217248081841 3.6507826086957 27.388726342711c2.0427621483376 19.861933503836 2.566547314578 39.776245524297 2.1579948849105 59.721984654731c-0.078567774936061 3.4046035805627 -0.28808184143223 7.3434680306905 -0.42950383631714 11.17757544757 c-0.27760613810742 2.0584757033248 -0.37712531969309 2.8074884910486 -0.45045524296675 3.2369923273657l-0.82758056265985 1.5242148337596c-2.8074884910486 7.2701381074169 -5.4945063938619 14.592654731458 -8.4224654731458 21.810414322251c-10.706168797954 26.314966751918 -23.240347826087 51.74473657289 -37.508255754476 76.315498721228 c-0.61282864450128 1.0580460358056 -1.2413708439898 2.1056163682864 -1.8227723785166 3.1741381074169c-0.10999488491049 0.19380051150895 0.010475703324808 0.50283375959079 0.041902813299233 1.010905370844c0.96900255754476 -0.77520204603581 1.7861074168798 -1.3932685421995 2.5613094629156 -2.0584757033248 c8.2077135549872 -7.0291969309463 14.948828644501 -15.325953964194 20.789033248082 -24.371723785166c8.4748439897698 -13.126056265985 14.519324808184 -27.341585677749 18.788173913043 -42.342792838875c3.1427109974425 -11.051867007673 5.2116624040921 -22.308010230179 6.416368286445 -33.72652685422 c0.020951406649616 -0.14142199488491 0.041902813299233 -0.82234271099744 0.041902813299233 -1.1994680306905c0.073329923273657 -0.40331457800512 0.16237340153453 -1.063283887468 0.46093094629156 -3.2369923273657c0.32474680306905 -0.58663938618926 0.77520204603581 -1.5765933503836 0.93757544757033 -1.9799079283887 c4.9078670076726 -13.152245524297 8.7157851662404 -26.613524296675 11.140910485934 -40.43621483376c2.1370434782609 -12.15705370844 3.2160409207161 -24.418864450128 2.9489104859335 -36.774956521739c-0.56568797953964 -25.288347826087 -6.2697084398977 -49.351038363171 -17.483948849105 -72.030936061381 c-13.487468030691 -27.283969309463 -32.574199488491 -49.974342710997 -56.794025575448 -68.369677749361c-1.1994680306905 -0.90614833759591 -2.4094117647059 -1.7913452685422 -3.6088797953964 -2.6974936061381c-0.052378516624041 -0.036664961636829 -0.041902813299233 -0.15713554987212 -0.14142199488491 -0.68092071611253 c2.3308439897698 0.08904347826087 4.4888388746803 0.062854219948849 6.636358056266 0.2566547314578c23.177493606138 2.1056163682864 43.149421994885 11.135672634271 59.392 27.917749360614c11.119959079284 11.486608695652 18.657227621483 25.152163682864 23.33462915601 40.410025575448 c3.111283887468 10.150956521739 4.4731253196931 20.569043478261 4.3474168797954 31.15474168798c-0.14665984654731 12.70179028133 -2.2313248081841 25.068358056266 -6.9244398976982 36.926854219949c-0.17284910485934 0.43474168797954 -0.32474680306905 0.88519693094629 -0.47140664961637 1.3304143222506 c-0.052378516624041 0.17284910485934 -0.031427109974425 0.36664961636829 -0.062854219948849 0.67044501278772c3.3784143222506 0.99519181585678 6.8039693094629 1.8856265984655 10.145718670077 3.0484296675192c3.278895140665 1.1418516624041 6.5106496163683 2.4356010230179 9.6638363171355 3.8864859335038 c3.2369923273657 1.4875498721228 6.3535140664962 3.2369923273657 9.6481227621483 4.9340562659847c0.28808184143223 -0.58140153452685 0.60235294117647 -1.1366138107417 0.84329411764706 -1.7389667519182c3.383652173913 -8.4015140664962 5.6621176470588 -17.122537084399 7.1444296675192 -26.042598465473 C355.28871611253 154.47079283887 355.79154987212 143.86938107417 355.18919693095 133.22606649616zM411.05088491049 293.2162455243c-0.6442557544757 -10.360470588235 -2.618925831202 -20.50095140665 -5.9921023017903 -30.337636828645 c-1.6342097186701 -4.7297800511509 -3.9650537084399 -9.1348132992327 -6.4792225063939 -13.435089514066c-4.3474168797954 -7.427273657289 -9.501462915601 -14.22600511509 -16.059253196931 -19.877647058824c-6.7515907928389 -5.8297289002558 -14.456470588235 -9.7424040920716 -23.287488491049 -11.277094629156 c-7.2910895140665 -1.2727979539642 -14.414567774936 -0.6442557544757 -21.41757544757 1.6656368286445c-7.4325115089514 2.4513145780051 -13.937923273657 6.5001739130435 -19.898598465473 11.491846547315c-1.5765933503836 1.3251764705882 -3.0693810741688 2.7446342710997 -4.6564501278772 4.1588542199489 c0.6442557544757 1.0842352941176 1.6656368286445 1.4037442455243 2.514168797954 1.9013401534527c11.643744245524 6.7515907928389 22.863222506394 14.142199488491 33.564153452685 22.292296675192c8.8414936061381 6.7358772378517 17.258721227621 13.953636828645 24.665043478261 22.271345268542 c4.2583734015345 4.7926342710997 8.0924808184143 9.8943017902813 10.9366342711 15.682127877238c1.2780358056266 2.6294015345269 2.294179028133 5.353084398977 2.9279590792839 8.2129514066496c0.10999488491049 0.5080716112532 0.083805626598465 1.0423324808184 0.14665984654731 2.1579948849105 c-18.929595907928 -32.982751918159 -46.328797953964 -53.845115089514 -82.779007672634 -62.775652173913c-0.45045524296675 0.60235294117647 -0.7699641943734 0.94281329923274 -0.98995396419437 1.3408900255754c-4.4731253196931 8.1081943734015 -7.1182404092072 16.771601023018 -7.5320306905371 26.037360613811 c-0.50283375959079 11.339948849105 2.8546291560102 21.485667519182 9.7895447570332 30.473820971867c3.7345882352941 4.834537084399 8.2548542199489 8.710547314578 13.524132992327 11.774690537084c7.6944040920716 4.4626496163683 15.907355498721 7.6315498721228 24.403150895141 10.119529411765 c0.98995396419437 0.29331969309463 2.0008593350384 0.56045012787724 2.9908132992327 0.80662915601023c11.533749360614 2.8232020460358 21.297104859335 8.7524501278772 29.78242455243 16.939212276215c5.5887877237852 5.4002250639386 10.13000511509 11.607079283887 13.759836317136 18.473902813299 c0.54473657289003 1.0580460358056 1.1470895140665 2.0899028132992 1.8646751918159 3.4046035805627c0.96900255754476 -1.529452685422 1.7861074168798 -2.7760613810742 2.5298823529412 -4.0645728900256c5.2692787723785 -9.0824347826087 9.0876726342711 -18.751508951407 11.827069053708 -28.871038363171 C410.60042966752 319.13313554987 411.85227621483 306.26373401535 411.05088491049 293.2162455243z"/></font></defs></svg>
